{"frames": {

"金币雨28_00145.png":
{
	"frame": {"x":141,"y":182,"w":3,"h":3},
	"rotated": false,
	"trimmed": true,
	"spriteSourceSize": {"x":0,"y":0,"w":3,"h":3},
	"sourceSize": {"w":750,"h":1700}
},
"金币雨28_00146.png":
{
	"frame": {"x":141,"y":182,"w":3,"h":3},
	"rotated": false,
	"trimmed": true,
	"spriteSourceSize": {"x":0,"y":0,"w":3,"h":3},
	"sourceSize": {"w":750,"h":1700}
},
"金币雨28_00147.png":
{
	"frame": {"x":141,"y":182,"w":3,"h":3},
	"rotated": false,
	"trimmed": true,
	"spriteSourceSize": {"x":0,"y":0,"w":3,"h":3},
	"sourceSize": {"w":750,"h":1700}
},
"金币雨28_00148.png":
{
	"frame": {"x":893,"y":1,"w":42,"h":28},
	"rotated": false,
	"trimmed": true,
	"spriteSourceSize": {"x":708,"y":0,"w":42,"h":28},
	"sourceSize": {"w":750,"h":1700}
},
"金币雨28_00149.png":
{
	"frame": {"x":884,"y":53,"w":81,"h":85},
	"rotated": false,
	"trimmed": true,
	"spriteSourceSize": {"x":669,"y":50,"w":81,"h":85},
	"sourceSize": {"w":750,"h":1700}
},
"金币雨28_00150.png":
{
	"frame": {"x":568,"y":142,"w":98,"h":91},
	"rotated": false,
	"trimmed": true,
	"spriteSourceSize": {"x":652,"y":148,"w":98,"h":91},
	"sourceSize": {"w":750,"h":1700}
},
"金币雨28_00151.png":
{
	"frame": {"x":449,"y":142,"w":117,"h":95},
	"rotated": false,
	"trimmed": true,
	"spriteSourceSize": {"x":633,"y":245,"w":117,"h":95},
	"sourceSize": {"w":750,"h":1700}
},
"金币雨28_00152.png":
{
	"frame": {"x":1,"y":93,"w":138,"h":93},
	"rotated": false,
	"trimmed": true,
	"spriteSourceSize": {"x":612,"y":342,"w":138,"h":93},
	"sourceSize": {"w":750,"h":1700}
},
"金币雨28_00153.png":
{
	"frame": {"x":1,"y":1,"w":144,"h":90},
	"rotated": false,
	"trimmed": true,
	"spriteSourceSize": {"x":590,"y":438,"w":144,"h":90},
	"sourceSize": {"w":750,"h":1700}
},
"金币雨28_00154.png":
{
	"frame": {"x":141,"y":93,"w":145,"h":87},
	"rotated": false,
	"trimmed": true,
	"spriteSourceSize": {"x":568,"y":533,"w":145,"h":87},
	"sourceSize": {"w":750,"h":1700}
},
"金币雨28_00155.png":
{
	"frame": {"x":147,"y":1,"w":145,"h":83},
	"rotated": false,
	"trimmed": true,
	"spriteSourceSize": {"x":546,"y":628,"w":145,"h":83},
	"sourceSize": {"w":750,"h":1700}
},
"金币雨28_00156.png":
{
	"frame": {"x":288,"y":86,"w":146,"h":78},
	"rotated": false,
	"trimmed": true,
	"spriteSourceSize": {"x":524,"y":722,"w":146,"h":78},
	"sourceSize": {"w":750,"h":1700}
},
"金币雨28_00157.png":
{
	"frame": {"x":300,"y":166,"w":147,"h":75},
	"rotated": false,
	"trimmed": true,
	"spriteSourceSize": {"x":502,"y":814,"w":147,"h":75},
	"sourceSize": {"w":750,"h":1700}
},
"金币雨28_00158.png":
{
	"frame": {"x":294,"y":1,"w":148,"h":70},
	"rotated": false,
	"trimmed": true,
	"spriteSourceSize": {"x":481,"y":905,"w":148,"h":70},
	"sourceSize": {"w":750,"h":1700}
},
"金币雨28_00159.png":
{
	"frame": {"x":436,"y":73,"w":148,"h":67},
	"rotated": false,
	"trimmed": true,
	"spriteSourceSize": {"x":462,"y":993,"w":148,"h":67},
	"sourceSize": {"w":750,"h":1700}
},
"金币雨28_00160.png":
{
	"frame": {"x":444,"y":1,"w":148,"h":64},
	"rotated": false,
	"trimmed": true,
	"spriteSourceSize": {"x":443,"y":1079,"w":148,"h":64},
	"sourceSize": {"w":750,"h":1700}
},
"金币雨28_00161.png":
{
	"frame": {"x":150,"y":182,"w":148,"h":59},
	"rotated": false,
	"trimmed": true,
	"spriteSourceSize": {"x":426,"y":1163,"w":148,"h":59},
	"sourceSize": {"w":750,"h":1700}
},
"金币雨28_00162.png":
{
	"frame": {"x":586,"y":67,"w":148,"h":57},
	"rotated": false,
	"trimmed": true,
	"spriteSourceSize": {"x":410,"y":1242,"w":148,"h":57},
	"sourceSize": {"w":750,"h":1700}
},
"金币雨28_00163.png":
{
	"frame": {"x":594,"y":1,"w":149,"h":54},
	"rotated": false,
	"trimmed": true,
	"spriteSourceSize": {"x":395,"y":1318,"w":149,"h":54},
	"sourceSize": {"w":750,"h":1700}
},
"金币雨28_00164.png":
{
	"frame": {"x":1,"y":188,"w":147,"h":53},
	"rotated": false,
	"trimmed": true,
	"spriteSourceSize": {"x":383,"y":1388,"w":147,"h":53},
	"sourceSize": {"w":750,"h":1700}
},
"金币雨28_00165.png":
{
	"frame": {"x":668,"y":126,"w":148,"h":52},
	"rotated": false,
	"trimmed": true,
	"spriteSourceSize": {"x":371,"y":1453,"w":148,"h":52},
	"sourceSize": {"w":750,"h":1700}
},
"金币雨28_00166.png":
{
	"frame": {"x":736,"y":57,"w":146,"h":50},
	"rotated": false,
	"trimmed": true,
	"spriteSourceSize": {"x":362,"y":1511,"w":146,"h":50},
	"sourceSize": {"w":750,"h":1700}
},
"金币雨28_00167.png":
{
	"frame": {"x":745,"y":1,"w":146,"h":50},
	"rotated": false,
	"trimmed": true,
	"spriteSourceSize": {"x":354,"y":1560,"w":146,"h":50},
	"sourceSize": {"w":750,"h":1700}
},
"金币雨28_00168.png":
{
	"frame": {"x":668,"y":180,"w":146,"h":49},
	"rotated": false,
	"trimmed": true,
	"spriteSourceSize": {"x":348,"y":1598,"w":146,"h":49},
	"sourceSize": {"w":750,"h":1700}
},
"金币雨28_00169.png":
{
	"frame": {"x":816,"y":192,"w":145,"h":49},
	"rotated": false,
	"trimmed": true,
	"spriteSourceSize": {"x":345,"y":1618,"w":145,"h":49},
	"sourceSize": {"w":750,"h":1700}
},
"金币雨28_00170.png":
{
	"frame": {"x":818,"y":140,"w":145,"h":50},
	"rotated": false,
	"trimmed": true,
	"spriteSourceSize": {"x":345,"y":1618,"w":145,"h":50},
	"sourceSize": {"w":750,"h":1700}
}},
"meta": {
	"app": "https://www.codeandweb.com/texturepacker",
	"version": "1.0",
	"image": "28.png",
	"format": "RGBA8888",
	"size": {"w":966,"h":242},
	"scale": "1",
	"smartupdate": "$TexturePacker:SmartUpdate:1270e927863565a2234d7ade307e6853:ac4ac6f37bdcbd7ba297dbbd09c8386a:6744f97c412c9deae107ede250fa8def$"
}
}
