{"frames": {

"金币雨33_00145.png":
{
	"frame": {"x":235,"y":793,"w":3,"h":3},
	"rotated": false,
	"trimmed": true,
	"spriteSourceSize": {"x":0,"y":0,"w":3,"h":3},
	"sourceSize": {"w":750,"h":1700}
},
"金币雨33_00146.png":
{
	"frame": {"x":235,"y":793,"w":3,"h":3},
	"rotated": false,
	"trimmed": true,
	"spriteSourceSize": {"x":0,"y":0,"w":3,"h":3},
	"sourceSize": {"w":750,"h":1700}
},
"金币雨33_00147.png":
{
	"frame": {"x":108,"y":1280,"w":105,"h":25},
	"rotated": false,
	"trimmed": true,
	"spriteSourceSize": {"x":645,"y":27,"w":105,"h":25},
	"sourceSize": {"w":750,"h":1700}
},
"金币雨33_00148.png":
{
	"frame": {"x":110,"y":1237,"w":105,"h":41},
	"rotated": false,
	"trimmed": true,
	"spriteSourceSize": {"x":645,"y":77,"w":105,"h":41},
	"sourceSize": {"w":750,"h":1700}
},
"金币雨33_00149.png":
{
	"frame": {"x":1,"y":1247,"w":105,"h":58},
	"rotated": false,
	"trimmed": true,
	"spriteSourceSize": {"x":645,"y":134,"w":105,"h":58},
	"sourceSize": {"w":750,"h":1700}
},
"金币雨33_00150.png":
{
	"frame": {"x":110,"y":1161,"w":106,"h":74},
	"rotated": false,
	"trimmed": true,
	"spriteSourceSize": {"x":644,"y":196,"w":106,"h":74},
	"sourceSize": {"w":750,"h":1700}
},
"金币雨33_00151.png":
{
	"frame": {"x":1,"y":1157,"w":107,"h":88},
	"rotated": false,
	"trimmed": true,
	"spriteSourceSize": {"x":643,"y":263,"w":107,"h":88},
	"sourceSize": {"w":750,"h":1700}
},
"金币雨33_00152.png":
{
	"frame": {"x":1,"y":1055,"w":107,"h":100},
	"rotated": false,
	"trimmed": true,
	"spriteSourceSize": {"x":643,"y":334,"w":107,"h":100},
	"sourceSize": {"w":750,"h":1700}
},
"金币雨33_00153.png":
{
	"frame": {"x":112,"y":1049,"w":108,"h":110},
	"rotated": false,
	"trimmed": true,
	"spriteSourceSize": {"x":642,"y":408,"w":108,"h":110},
	"sourceSize": {"w":750,"h":1700}
},
"金币雨33_00154.png":
{
	"frame": {"x":1,"y":935,"w":109,"h":118},
	"rotated": false,
	"trimmed": true,
	"spriteSourceSize": {"x":641,"y":485,"w":109,"h":118},
	"sourceSize": {"w":750,"h":1700}
},
"金币雨33_00155.png":
{
	"frame": {"x":114,"y":924,"w":110,"h":123},
	"rotated": false,
	"trimmed": true,
	"spriteSourceSize": {"x":640,"y":565,"w":110,"h":123},
	"sourceSize": {"w":750,"h":1700}
},
"金币雨33_00156.png":
{
	"frame": {"x":1,"y":806,"w":111,"h":127},
	"rotated": false,
	"trimmed": true,
	"spriteSourceSize": {"x":639,"y":647,"w":111,"h":127},
	"sourceSize": {"w":750,"h":1700}
},
"金币雨33_00157.png":
{
	"frame": {"x":121,"y":793,"w":112,"h":129},
	"rotated": false,
	"trimmed": true,
	"spriteSourceSize": {"x":638,"y":731,"w":112,"h":129},
	"sourceSize": {"w":750,"h":1700}
},
"金币雨33_00158.png":
{
	"frame": {"x":123,"y":396,"w":113,"h":129},
	"rotated": false,
	"trimmed": true,
	"spriteSourceSize": {"x":637,"y":816,"w":113,"h":129},
	"sourceSize": {"w":750,"h":1700}
},
"金币雨33_00159.png":
{
	"frame": {"x":123,"y":264,"w":113,"h":130},
	"rotated": false,
	"trimmed": true,
	"spriteSourceSize": {"x":637,"y":901,"w":113,"h":130},
	"sourceSize": {"w":750,"h":1700}
},
"金币雨33_00160.png":
{
	"frame": {"x":123,"y":133,"w":114,"h":129},
	"rotated": false,
	"trimmed": true,
	"spriteSourceSize": {"x":636,"y":987,"w":114,"h":129},
	"sourceSize": {"w":750,"h":1700}
},
"金币雨33_00161.png":
{
	"frame": {"x":123,"y":1,"w":115,"h":130},
	"rotated": false,
	"trimmed": true,
	"spriteSourceSize": {"x":635,"y":1071,"w":115,"h":130},
	"sourceSize": {"w":750,"h":1700}
},
"金币雨33_00162.png":
{
	"frame": {"x":122,"y":527,"w":116,"h":131},
	"rotated": false,
	"trimmed": true,
	"spriteSourceSize": {"x":634,"y":1154,"w":116,"h":131},
	"sourceSize": {"w":750,"h":1700}
},
"金币雨33_00163.png":
{
	"frame": {"x":121,"y":660,"w":117,"h":131},
	"rotated": false,
	"trimmed": true,
	"spriteSourceSize": {"x":633,"y":1236,"w":117,"h":131},
	"sourceSize": {"w":750,"h":1700}
},
"金币雨33_00164.png":
{
	"frame": {"x":1,"y":673,"w":118,"h":131},
	"rotated": false,
	"trimmed": true,
	"spriteSourceSize": {"x":632,"y":1315,"w":118,"h":131},
	"sourceSize": {"w":750,"h":1700}
},
"金币雨33_00165.png":
{
	"frame": {"x":1,"y":539,"w":118,"h":132},
	"rotated": false,
	"trimmed": true,
	"spriteSourceSize": {"x":632,"y":1389,"w":118,"h":132},
	"sourceSize": {"w":750,"h":1700}
},
"金币雨33_00166.png":
{
	"frame": {"x":1,"y":405,"w":119,"h":132},
	"rotated": false,
	"trimmed": true,
	"spriteSourceSize": {"x":631,"y":1457,"w":119,"h":132},
	"sourceSize": {"w":750,"h":1700}
},
"金币雨33_00167.png":
{
	"frame": {"x":1,"y":271,"w":120,"h":132},
	"rotated": false,
	"trimmed": true,
	"spriteSourceSize": {"x":630,"y":1515,"w":120,"h":132},
	"sourceSize": {"w":750,"h":1700}
},
"金币雨33_00168.png":
{
	"frame": {"x":1,"y":1,"w":120,"h":133},
	"rotated": false,
	"trimmed": true,
	"spriteSourceSize": {"x":630,"y":1552,"w":120,"h":133},
	"sourceSize": {"w":750,"h":1700}
},
"金币雨33_00169.png":
{
	"frame": {"x":1,"y":136,"w":120,"h":133},
	"rotated": false,
	"trimmed": true,
	"spriteSourceSize": {"x":630,"y":1556,"w":120,"h":133},
	"sourceSize": {"w":750,"h":1700}
},
"金币雨33_00170.png":
{
	"frame": {"x":1,"y":136,"w":120,"h":133},
	"rotated": false,
	"trimmed": true,
	"spriteSourceSize": {"x":630,"y":1556,"w":120,"h":133},
	"sourceSize": {"w":750,"h":1700}
},
"金币雨33_00171.png":
{
	"frame": {"x":1,"y":136,"w":120,"h":133},
	"rotated": false,
	"trimmed": true,
	"spriteSourceSize": {"x":630,"y":1556,"w":120,"h":133},
	"sourceSize": {"w":750,"h":1700}
}},
"meta": {
	"app": "https://www.codeandweb.com/texturepacker",
	"version": "1.0",
	"image": "33.png",
	"format": "RGBA8888",
	"size": {"w":239,"h":1306},
	"scale": "1",
	"smartupdate": "$TexturePacker:SmartUpdate:ad7027cfd95ee3b03b73e52b3741e6e9:35983a83e18e69f761445c8158294f45:5fcb6a0feaea19f4e701f89a1c462613$"
}
}
