{"frames": {

"金币雨35_00141.png":
{
	"frame": {"x":240,"y":49,"w":3,"h":3},
	"rotated": false,
	"trimmed": true,
	"spriteSourceSize": {"x":0,"y":0,"w":3,"h":3},
	"sourceSize": {"w":750,"h":1700}
},
"金币雨35_00142.png":
{
	"frame": {"x":240,"y":49,"w":3,"h":3},
	"rotated": false,
	"trimmed": true,
	"spriteSourceSize": {"x":0,"y":0,"w":3,"h":3},
	"sourceSize": {"w":750,"h":1700}
},
"金币雨35_00143.png":
{
	"frame": {"x":240,"y":49,"w":3,"h":3},
	"rotated": false,
	"trimmed": true,
	"spriteSourceSize": {"x":0,"y":0,"w":3,"h":3},
	"sourceSize": {"w":750,"h":1700}
},
"金币雨35_00144.png":
{
	"frame": {"x":240,"y":49,"w":3,"h":3},
	"rotated": false,
	"trimmed": true,
	"spriteSourceSize": {"x":0,"y":0,"w":3,"h":3},
	"sourceSize": {"w":750,"h":1700}
},
"金币雨35_00145.png":
{
	"frame": {"x":240,"y":49,"w":3,"h":3},
	"rotated": false,
	"trimmed": true,
	"spriteSourceSize": {"x":0,"y":0,"w":3,"h":3},
	"sourceSize": {"w":750,"h":1700}
},
"金币雨35_00146.png":
{
	"frame": {"x":137,"y":115,"w":53,"h":25},
	"rotated": false,
	"trimmed": true,
	"spriteSourceSize": {"x":697,"y":0,"w":53,"h":25},
	"sourceSize": {"w":750,"h":1700}
},
"金币雨35_00147.png":
{
	"frame": {"x":140,"y":84,"w":67,"h":29},
	"rotated": false,
	"trimmed": true,
	"spriteSourceSize": {"x":683,"y":84,"w":67,"h":29},
	"sourceSize": {"w":750,"h":1700}
},
"金币雨35_00148.png":
{
	"frame": {"x":140,"y":74,"w":86,"h":8},
	"rotated": false,
	"trimmed": true,
	"spriteSourceSize": {"x":664,"y":206,"w":86,"h":8},
	"sourceSize": {"w":750,"h":1700}
},
"金币雨35_00149.png":
{
	"frame": {"x":140,"y":49,"w":98,"h":23},
	"rotated": false,
	"trimmed": true,
	"spriteSourceSize": {"x":652,"y":322,"w":98,"h":23},
	"sourceSize": {"w":750,"h":1700}
},
"金币雨35_00150.png":
{
	"frame": {"x":140,"y":1,"w":114,"h":46},
	"rotated": false,
	"trimmed": true,
	"spriteSourceSize": {"x":636,"y":442,"w":114,"h":46},
	"sourceSize": {"w":750,"h":1700}
},
"金币雨35_00151.png":
{
	"frame": {"x":1,"y":331,"w":131,"h":70},
	"rotated": false,
	"trimmed": true,
	"spriteSourceSize": {"x":619,"y":567,"w":131,"h":70},
	"sourceSize": {"w":750,"h":1700}
},
"金币雨35_00152.png":
{
	"frame": {"x":1,"y":1,"w":137,"h":91},
	"rotated": false,
	"trimmed": true,
	"spriteSourceSize": {"x":601,"y":696,"w":137,"h":91},
	"sourceSize": {"w":750,"h":1700}
},
"金币雨35_00153.png":
{
	"frame": {"x":1,"y":94,"w":134,"h":109},
	"rotated": false,
	"trimmed": true,
	"spriteSourceSize": {"x":584,"y":826,"w":134,"h":109},
	"sourceSize": {"w":750,"h":1700}
},
"金币雨35_00154.png":
{
	"frame": {"x":1,"y":205,"w":132,"h":124},
	"rotated": false,
	"trimmed": true,
	"spriteSourceSize": {"x":567,"y":954,"w":132,"h":124},
	"sourceSize": {"w":750,"h":1700}
},
"金币雨35_00155.png":
{
	"frame": {"x":1,"y":403,"w":130,"h":136},
	"rotated": false,
	"trimmed": true,
	"spriteSourceSize": {"x":552,"y":1077,"w":130,"h":136},
	"sourceSize": {"w":750,"h":1700}
},
"金币雨35_00156.png":
{
	"frame": {"x":1,"y":541,"w":128,"h":141},
	"rotated": false,
	"trimmed": true,
	"spriteSourceSize": {"x":537,"y":1194,"w":128,"h":141},
	"sourceSize": {"w":750,"h":1700}
},
"金币雨35_00157.png":
{
	"frame": {"x":1,"y":684,"w":126,"h":144},
	"rotated": false,
	"trimmed": true,
	"spriteSourceSize": {"x":524,"y":1300,"w":126,"h":144},
	"sourceSize": {"w":750,"h":1700}
},
"金币雨35_00158.png":
{
	"frame": {"x":129,"y":684,"w":126,"h":143},
	"rotated": false,
	"trimmed": true,
	"spriteSourceSize": {"x":512,"y":1393,"w":126,"h":143},
	"sourceSize": {"w":750,"h":1700}
},
"金币雨35_00159.png":
{
	"frame": {"x":131,"y":541,"w":124,"h":141},
	"rotated": false,
	"trimmed": true,
	"spriteSourceSize": {"x":503,"y":1469,"w":124,"h":141},
	"sourceSize": {"w":750,"h":1700}
},
"金币雨35_00160.png":
{
	"frame": {"x":129,"y":829,"w":124,"h":137},
	"rotated": false,
	"trimmed": true,
	"spriteSourceSize": {"x":496,"y":1525,"w":124,"h":137},
	"sourceSize": {"w":750,"h":1700}
},
"金币雨35_00161.png":
{
	"frame": {"x":133,"y":403,"w":122,"h":135},
	"rotated": false,
	"trimmed": true,
	"spriteSourceSize": {"x":493,"y":1557,"w":122,"h":135},
	"sourceSize": {"w":750,"h":1700}
},
"金币雨35_00162.png":
{
	"frame": {"x":1,"y":830,"w":123,"h":135},
	"rotated": false,
	"trimmed": true,
	"spriteSourceSize": {"x":492,"y":1563,"w":123,"h":135},
	"sourceSize": {"w":750,"h":1700}
}},
"meta": {
	"app": "https://www.codeandweb.com/texturepacker",
	"version": "1.0",
	"image": "35.png",
	"format": "RGBA8888",
	"size": {"w":256,"h":967},
	"scale": "1",
	"smartupdate": "$TexturePacker:SmartUpdate:4fba11d1503ffd626790c89a586ee2e5:0662f3492ec45458f5a9aa3224bd45f5:32afe0de379dac70261f2d644556dd47$"
}
}
