{"frames": {

"金币雨9_00099.png":
{
	"frame": {"x":1,"y":236,"w":3,"h":3},
	"rotated": false,
	"trimmed": true,
	"spriteSourceSize": {"x":0,"y":0,"w":3,"h":3},
	"sourceSize": {"w":750,"h":1700}
},
"金币雨9_00100.png":
{
	"frame": {"x":1,"y":236,"w":3,"h":3},
	"rotated": false,
	"trimmed": true,
	"spriteSourceSize": {"x":0,"y":0,"w":3,"h":3},
	"sourceSize": {"w":750,"h":1700}
},
"金币雨9_00101.png":
{
	"frame": {"x":1,"y":236,"w":3,"h":3},
	"rotated": false,
	"trimmed": true,
	"spriteSourceSize": {"x":0,"y":0,"w":3,"h":3},
	"sourceSize": {"w":750,"h":1700}
},
"金币雨9_00102.png":
{
	"frame": {"x":1,"y":236,"w":3,"h":3},
	"rotated": false,
	"trimmed": true,
	"spriteSourceSize": {"x":0,"y":0,"w":3,"h":3},
	"sourceSize": {"w":750,"h":1700}
},
"金币雨9_00103.png":
{
	"frame": {"x":1,"y":236,"w":3,"h":3},
	"rotated": false,
	"trimmed": true,
	"spriteSourceSize": {"x":0,"y":0,"w":3,"h":3},
	"sourceSize": {"w":750,"h":1700}
},
"金币雨9_00104.png":
{
	"frame": {"x":1,"y":236,"w":3,"h":3},
	"rotated": false,
	"trimmed": true,
	"spriteSourceSize": {"x":0,"y":0,"w":3,"h":3},
	"sourceSize": {"w":750,"h":1700}
},
"金币雨9_00105.png":
{
	"frame": {"x":1,"y":236,"w":3,"h":3},
	"rotated": false,
	"trimmed": true,
	"spriteSourceSize": {"x":0,"y":0,"w":3,"h":3},
	"sourceSize": {"w":750,"h":1700}
},
"金币雨9_00106.png":
{
	"frame": {"x":1,"y":236,"w":3,"h":3},
	"rotated": false,
	"trimmed": true,
	"spriteSourceSize": {"x":0,"y":0,"w":3,"h":3},
	"sourceSize": {"w":750,"h":1700}
},
"金币雨9_00107.png":
{
	"frame": {"x":1,"y":236,"w":3,"h":3},
	"rotated": false,
	"trimmed": true,
	"spriteSourceSize": {"x":0,"y":0,"w":3,"h":3},
	"sourceSize": {"w":750,"h":1700}
},
"金币雨9_00108.png":
{
	"frame": {"x":306,"y":144,"w":73,"h":97},
	"rotated": false,
	"trimmed": true,
	"spriteSourceSize": {"x":270,"y":23,"w":73,"h":97},
	"sourceSize": {"w":750,"h":1700}
},
"金币雨9_00109.png":
{
	"frame": {"x":167,"y":155,"w":137,"h":81},
	"rotated": false,
	"trimmed": true,
	"spriteSourceSize": {"x":197,"y":193,"w":137,"h":81},
	"sourceSize": {"w":750,"h":1700}
},
"金币雨9_00110.png":
{
	"frame": {"x":419,"y":1,"w":72,"h":118},
	"rotated": false,
	"trimmed": true,
	"spriteSourceSize": {"x":239,"y":345,"w":72,"h":118},
	"sourceSize": {"w":750,"h":1700}
},
"金币雨9_00111.png":
{
	"frame": {"x":493,"y":71,"w":161,"h":64},
	"rotated": false,
	"trimmed": true,
	"spriteSourceSize": {"x":167,"y":531,"w":161,"h":64},
	"sourceSize": {"w":750,"h":1700}
},
"金币雨9_00112.png":
{
	"frame": {"x":242,"y":1,"w":71,"h":141},
	"rotated": false,
	"trimmed": true,
	"spriteSourceSize": {"x":183,"y":671,"w":71,"h":141},
	"sourceSize": {"w":750,"h":1700}
},
"金币雨9_00113.png":
{
	"frame": {"x":315,"y":1,"w":102,"h":137},
	"rotated": false,
	"trimmed": true,
	"spriteSourceSize": {"x":149,"y":853,"w":102,"h":137},
	"sourceSize": {"w":750,"h":1700}
},
"金币雨9_00114.png":
{
	"frame": {"x":493,"y":1,"w":163,"h":68},
	"rotated": false,
	"trimmed": true,
	"spriteSourceSize": {"x":105,"y":1062,"w":163,"h":68},
	"sourceSize": {"w":750,"h":1700}
},
"金币雨9_00115.png":
{
	"frame": {"x":114,"y":1,"w":126,"h":152},
	"rotated": false,
	"trimmed": true,
	"spriteSourceSize": {"x":121,"y":1183,"w":126,"h":152},
	"sourceSize": {"w":750,"h":1700}
},
"金币雨9_00116.png":
{
	"frame": {"x":381,"y":140,"w":149,"h":105},
	"rotated": false,
	"trimmed": true,
	"spriteSourceSize": {"x":106,"y":1329,"w":149,"h":105},
	"sourceSize": {"w":750,"h":1700}
},
"金币雨9_00117.png":
{
	"frame": {"x":1,"y":1,"w":111,"h":163},
	"rotated": false,
	"trimmed": true,
	"spriteSourceSize": {"x":87,"y":1441,"w":111,"h":163},
	"sourceSize": {"w":750,"h":1700}
},
"金币雨9_00118.png":
{
	"frame": {"x":1,"y":166,"w":164,"h":68},
	"rotated": false,
	"trimmed": true,
	"spriteSourceSize": {"x":71,"y":1583,"w":164,"h":68},
	"sourceSize": {"w":750,"h":1700}
},
"金币雨9_00119.png":
{
	"frame": {"x":532,"y":137,"w":87,"h":62},
	"rotated": false,
	"trimmed": true,
	"spriteSourceSize": {"x":89,"y":1638,"w":87,"h":62},
	"sourceSize": {"w":750,"h":1700}
},
"金币雨9_00120.png":
{
	"frame": {"x":1,"y":236,"w":3,"h":3},
	"rotated": false,
	"trimmed": true,
	"spriteSourceSize": {"x":0,"y":0,"w":3,"h":3},
	"sourceSize": {"w":750,"h":1700}
},
"金币雨9_00121.png":
{
	"frame": {"x":1,"y":236,"w":3,"h":3},
	"rotated": false,
	"trimmed": true,
	"spriteSourceSize": {"x":0,"y":0,"w":3,"h":3},
	"sourceSize": {"w":750,"h":1700}
},
"金币雨9_00122.png":
{
	"frame": {"x":1,"y":236,"w":3,"h":3},
	"rotated": false,
	"trimmed": true,
	"spriteSourceSize": {"x":0,"y":0,"w":3,"h":3},
	"sourceSize": {"w":750,"h":1700}
},
"金币雨9_00123.png":
{
	"frame": {"x":1,"y":236,"w":3,"h":3},
	"rotated": false,
	"trimmed": true,
	"spriteSourceSize": {"x":0,"y":0,"w":3,"h":3},
	"sourceSize": {"w":750,"h":1700}
},
"金币雨9_00124.png":
{
	"frame": {"x":1,"y":236,"w":3,"h":3},
	"rotated": false,
	"trimmed": true,
	"spriteSourceSize": {"x":0,"y":0,"w":3,"h":3},
	"sourceSize": {"w":750,"h":1700}
}},
"meta": {
	"app": "https://www.codeandweb.com/texturepacker",
	"version": "1.0",
	"image": "9.png",
	"format": "RGBA8888",
	"size": {"w":657,"h":246},
	"scale": "1",
	"smartupdate": "$TexturePacker:SmartUpdate:562dfdedc0216d6bd942e0a4a5fc3b0d:25a64b66a0aafcdbd323b03b8d45e9bd:005cfeeecdb881bde464c140babce266$"
}
}
